<?xml version="1.0" standalone="no"?>
<!DOCTYPE svg PUBLIC "-//W3C//DTD SVG 20010904//EN"
 "http://www.w3.org/TR/2001/REC-SVG-20010904/DTD/svg10.dtd">
<svg version="1.0" xmlns="http://www.w3.org/2000/svg"
 width="128.000000pt" height="128.000000pt" viewBox="0 0 128.000000 128.000000"
 preserveAspectRatio="xMidYMid meet">
<metadata>
Created by potrace 1.14, written by Peter Selinger 2001-2017
</metadata>
<g transform="translate(0.000000,128.000000) scale(0.100000,-0.100000)"
fill="#ffffff" stroke="none">
<path d="M174 1029 c-4 -7 72 -90 182 -200 l189 -189 -189 -189 c-110 -110
-186 -193 -182 -200 4 -6 38 -11 84 -11 l77 0 152 152 153 153 153 -153 152
-152 77 0 c46 0 80 5 84 11 4 7 -72 90 -182 200 l-189 189 189 189 c110 110
186 193 182 200 -4 6 -38 11 -84 11 l-77 0 -152 -152 -153 -153 -153 153 -152
152 -77 0 c-46 0 -80 -5 -84 -11z"/>
</g>
</svg>
